<svg xmlns="http://www.w3.org/2000/svg" xmlns:xlink="http://www.w3.org/1999/xlink" width="24" height="24" viewBox="0 0 24 24">
    <defs>
        <path id="a" d="M19.312 5H4.725A1.74 1.74 0 0 0 3 6.726v8.627c0 .804.627 1.432 1.431 1.432h4.04c.117 0 .254.058.313.137.078.078.117.235.078.353l-.294 1.902c-.059.45.432.804.824.608l4.686-2.942c.058-.02.137-.058.196-.058h5.293c.804 0 1.432-.628 1.432-1.432V6.745A1.675 1.675 0 0 0 19.312 5zM7.431 11.96A1.415 1.415 0 0 1 6 10.53c0-.804.627-1.432 1.431-1.432s1.431.628 1.431 1.432c0 .803-.627 1.43-1.431 1.43zm4.588 0a1.415 1.415 0 0 1-1.431-1.43c0-.804.627-1.432 1.43-1.432.805 0 1.432.628 1.432 1.432 0 .803-.627 1.43-1.431 1.43zm4.588 0a1.415 1.415 0 0 1-1.432-1.43c0-.804.628-1.432 1.432-1.432.804 0 1.431.628 1.431 1.432 0 .803-.627 1.43-1.431 1.43z"/>
    </defs>
    <g fill="none" fill-rule="evenodd">
        <mask id="b" fill="#fff">
            <use xlink:href="#a"/>
        </mask>
        <use fill="#fff" fill-rule="nonzero" xlink:href="#a"/>
        <g fill="fff" mask="url(#b)">
            <path d="M0 0h24v24H0z"/>
        </g>
    </g>
</svg>
